  -110.07886723
  -109.62220837
  -110.65948168
  -111.00189936
  -109.72240769
  -111.35703878
  -110.82192023
  -110.38780222
  -111.59875077
  -111.43228041
  -110.03902413
  -110.01148953
  -109.10153116
  -109.87796141
  -108.33334266
  -106.67708497
  -107.88550551
  -108.49696292
  -108.22436960
  -108.87770576
  -109.70491112
  -108.28159045
  -108.40061439
  -108.25870940
  -108.37121555
  -107.69961273
  -108.13454337
  -109.02862671
  -108.55832498
  -108.89443806
  -108.79835302
  -107.79374023
  -109.08535932
  -106.66216940
  -108.34800355
  -108.00099850
  -109.02187420
  -108.76532671
  -109.59901793
  -109.57678024
  -110.01443582
  -108.81448263
  -108.22336828
  -108.73876178
  -108.44840965
  -109.45231766
  -109.99121655
  -108.43708686
  -109.50998151
  -109.13945020
